pl\training\testApp\answer\Answer.class
pl\training\testApp\ApplicationConfig.class
pl\training\testApp\question\QuestionService.class
pl\training\testApp\answer\UserAnswer.class
pl\training\testApp\answer\UserAnswerService.class
pl\training\testApp\categoryQuestion\CategoryQuestionService.class
pl\training\testApp\user\UserRepository.class
pl\training\testApp\answer\CorrectAnswer.class
pl\training\testApp\categoryQuestion\CategoryQuestion.class
pl\training\testApp\Test\Test.class
pl\training\testApp\question\Question.class
pl\training\testApp\answerOption\AnswerOptionRepository.class
pl\training\testApp\question\QuestionRepository.class
pl\training\testApp\Test\TestRepository.class
pl\training\testApp\user\User.class
pl\training\testApp\answer\CorrectAnswerService.class
pl\training\testApp\answerOption\AnswerOption.class
pl\training\testApp\user\UserTestResultRepository.class
pl\training\testApp\user\UserTestResultService.class
pl\training\testApp\answer\CorrectAnswerRepository.class
pl\training\testApp\user\UserService.class
pl\training\testApp\answerOption\AnswerOptionService.class
pl\training\testApp\user\UserTestResult.class
pl\training\testApp\Service.class
pl\training\testApp\Application.class
pl\training\testApp\answer\UserAnswerRepository.class
pl\training\testApp\categoryQuestion\CategoryQuestionRepository.class
pl\training\testApp\Test\TestService.class
